<svg width="25" height="25" viewBox="0 0 25 25" fill="none" xmlns="http://www.w3.org/2000/svg">
<circle cx="12.5" cy="12.5" r="12.5" fill="#475F9D"/>
<path d="M1.80469 12.5V7.13281H0V5H1.80469V3.3125C1.80469 2.42188 2.05469 1.73438 2.55469 1.25C3.05469 0.75 3.71875 0.5 4.54688 0.5C5.21875 0.5 5.76562 0.53125 6.1875 0.59375V2.49219H5.0625C4.64062 2.49219 4.35156 2.58594 4.19531 2.77344C4.07031 2.92969 4.00781 3.17969 4.00781 3.52344V5H6L5.71875 7.13281H4.00781V12.5H1.80469Z" transform="translate(9 6)" fill="white"/>
</svg>